<svg width="139" height="128" viewBox="0 0 139 128" fill="none" xmlns="http://www.w3.org/2000/svg">
<path d="M132.425 125.831H6.4563V67.2542H32.5191L69.4407 30.3729L106.363 67.2542H132.425V125.831Z" fill="#E6BE94"/>
<path d="M82.4717 99.7966H56.4092V125.831H82.4717V99.7966Z" fill="#996459"/>
<path d="M81.9287 91.1186H56.9521C56.6522 91.1186 56.4092 91.3614 56.4092 91.661V99.7966H82.4717V91.661C82.4717 91.3614 82.2287 91.1186 81.9287 91.1186Z" fill="#D62F42"/>
<path d="M89.4859 13.0169L93.0258 7.71199C93.4691 7.04677 93.5114 6.19091 93.1338 5.48528C92.7562 4.77966 92.0204 4.33898 91.2188 4.33898H69.5C68.2995 4.33898 67.3281 5.30928 67.3281 6.50847V19.5254C67.3281 20.7246 68.2995 21.6949 69.5 21.6949H91.2188C92.0204 21.6949 92.7564 21.2542 93.1341 20.5486C93.5117 19.843 93.4691 18.9871 93.026 18.3219L89.4859 13.0169Z" fill="#D62F42"/>
<path d="M69.5 32.5424C68.2995 32.5424 67.3281 31.5721 67.3281 30.3729V2.16949C67.3281 0.970305 68.2995 0 69.5 0C70.7005 0 71.6719 0.970305 71.6719 2.16949V30.3729C71.6719 31.5721 70.7005 32.5424 69.5 32.5424Z" fill="#57527F"/>
<path d="M78.2937 40.39C78.6287 39.5786 79.422 39.0508 80.3003 39.0508H121.566C122.308 39.0508 123 39.43 123.398 40.0551L138.602 63.9195C139.028 64.589 139.053 65.4343 138.674 66.1291C138.292 66.822 137.562 67.254 136.769 67.254H104.191C103.614 67.254 103.063 67.0251 102.655 66.6183L78.7647 42.7539C78.143 42.1334 77.9563 41.2014 78.2937 40.39Z" fill="#D62F42"/>
<path d="M60.6472 40.39C60.3119 39.5783 59.5186 39.0508 58.6407 39.0508H17.375C16.6328 39.0508 15.9413 39.43 15.5425 40.0551L0.339381 63.9195C-0.0868497 64.589 -0.112369 65.4343 0.267166 66.1291C0.649144 66.822 1.37862 67.2542 2.1719 67.2542H34.75C35.3269 67.2542 35.8783 67.0254 36.2855 66.6186L60.1762 42.7542C60.7976 42.1334 60.9844 41.2014 60.6472 40.39Z" fill="#D62F42"/>
<path d="M106.392 69.3942C105.836 69.3942 105.281 69.1824 104.857 68.7585L69.4999 33.4408L34.1434 68.7585C33.295 69.606 31.9205 69.606 31.0721 68.7585C30.2237 67.9111 30.2237 66.538 31.0721 65.6906L67.9644 28.8388C68.8128 27.9913 70.1873 27.9913 71.0357 28.8388L107.928 65.6906C108.776 66.538 108.776 67.9111 107.928 68.7585C107.503 69.1821 106.948 69.3942 106.392 69.3942Z" fill="#3F3B5C"/>
<path d="M102.019 81.3559C102.019 78.3604 99.5879 75.9322 96.5891 75.9322C93.5903 75.9322 91.1594 78.3604 91.1594 81.3559C91.1594 81.7275 91.1977 82.09 91.2688 82.4407H91.1594V91.1186H102.019V82.4407H101.909C101.981 82.09 102.019 81.7275 102.019 81.3559Z" fill="#D62F42"/>
<path d="M96.6484 73.7627C92.4573 73.7627 89.0469 77.1694 89.0469 81.3559V91.1186C89.0469 92.3178 90.0182 93.2881 91.2188 93.2881H102.078C103.279 93.2881 104.25 92.3178 104.25 91.1186V81.3559C104.25 77.1694 100.84 73.7627 96.6484 73.7627ZM96.6484 78.1017C98.4449 78.1017 99.9063 79.5615 99.9063 81.3559V82.4407H93.3906V81.3559C93.3906 79.5615 94.852 78.1017 96.6484 78.1017ZM93.3906 88.9492V86.7797H99.9063V88.9492H93.3906Z" fill="#3F3B5C"/>
<path d="M47.7817 101.966H36.9224V114.983H47.7817V101.966Z" fill="#D62F42"/>
<path d="M47.7813 99.7966H36.9219C35.7214 99.7966 34.75 100.767 34.75 101.966V114.983C34.75 116.182 35.7214 117.153 36.9219 117.153H47.7813C48.9818 117.153 49.9531 116.182 49.9531 114.983V101.966C49.9531 100.767 48.9818 99.7966 47.7813 99.7966ZM45.6094 104.136V106.305H39.0938V104.136H45.6094ZM39.0938 112.814V110.644H45.6094V112.814H39.0938Z" fill="#3F3B5C"/>
<path d="M28.1748 101.966H17.3154V114.983H28.1748V101.966Z" fill="#D62F42"/>
<path d="M28.1748 99.7966H17.3154C16.1149 99.7966 15.1436 100.767 15.1436 101.966V114.983C15.1436 116.182 16.1149 117.153 17.3154 117.153H28.1748C29.3753 117.153 30.3467 116.182 30.3467 114.983V101.966C30.3467 100.767 29.3753 99.7966 28.1748 99.7966ZM26.0029 104.136V106.305H19.4873V104.136H26.0029ZM19.4873 112.814V110.644H26.0029V112.814H19.4873Z" fill="#3F3B5C"/>
<path d="M121.625 101.966H110.766V114.983H121.625V101.966Z" fill="#D62F42"/>
<path d="M121.625 99.7966H110.766C109.565 99.7966 108.594 100.767 108.594 101.966V114.983C108.594 116.182 109.565 117.153 110.766 117.153H121.625C122.826 117.153 123.797 116.182 123.797 114.983V101.966C123.797 100.767 122.826 99.7966 121.625 99.7966ZM119.453 104.136V106.305H112.938V104.136H119.453ZM112.938 112.814V110.644H119.453V112.814H112.938Z" fill="#3F3B5C"/>
<path d="M102.019 101.966H91.1597V114.983H102.019V101.966Z" fill="#D62F42"/>
<path d="M102.019 99.7966H91.1594C89.9589 99.7966 88.9875 100.767 88.9875 101.966V114.983C88.9875 116.182 89.9589 117.153 91.1594 117.153H102.019C103.219 117.153 104.191 116.182 104.191 114.983V101.966C104.191 100.767 103.219 99.7966 102.019 99.7966ZM99.8469 104.136V106.305H93.3313V104.136H99.8469ZM93.3313 112.814V110.644H99.8469V112.814H93.3313Z" fill="#3F3B5C"/>
<path d="M121.506 81.3559C121.506 78.3604 119.075 75.9322 116.077 75.9322C113.078 75.9322 110.647 78.3604 110.647 81.3559C110.647 81.7275 110.685 82.09 110.756 82.4407H110.647V91.1186H121.506V82.4407H121.397C121.468 82.09 121.506 81.7275 121.506 81.3559Z" fill="#D62F42"/>
<path d="M116.136 73.7627C111.945 73.7627 108.534 77.1694 108.534 81.3559V91.1186C108.534 92.3178 109.506 93.2881 110.706 93.2881H121.566C122.766 93.2881 123.738 92.3178 123.738 91.1186V81.3559C123.738 77.1694 120.327 73.7627 116.136 73.7627ZM116.136 78.1017C117.932 78.1017 119.394 79.5615 119.394 81.3559V82.4407H112.878V81.3559C112.878 79.5615 114.34 78.1017 116.136 78.1017ZM112.878 88.9492V86.7797H119.394V88.9492H112.878Z" fill="#3F3B5C"/>
<path d="M28.1155 81.3559C28.1155 78.3604 25.6846 75.9322 22.6858 75.9322C19.687 75.9322 17.2561 78.3604 17.2561 81.3559C17.2561 81.7275 17.2944 82.09 17.3655 82.4407H17.2561V91.1186H28.1155V82.4407H28.0061C28.0772 82.09 28.1155 81.7275 28.1155 81.3559Z" fill="#D62F42"/>
<path d="M22.7451 73.7627C18.5539 73.7627 15.1436 77.1694 15.1436 81.3559V91.1186C15.1436 92.3178 16.1149 93.2881 17.3154 93.2881H28.1748C29.3753 93.2881 30.3467 92.3178 30.3467 91.1186V81.3559C30.3467 77.1694 26.9363 73.7627 22.7451 73.7627ZM22.7451 78.1017C24.5415 78.1017 26.0029 79.5615 26.0029 81.3559V82.4407H19.4873V81.3559C19.4873 79.5615 20.9487 78.1017 22.7451 78.1017ZM19.4873 88.9492V86.7797H26.0029V88.9492H19.4873Z" fill="#3F3B5C"/>
<path d="M47.6033 81.3559C47.6033 78.3604 45.1724 75.9322 42.1736 75.9322C39.1748 75.9322 36.7439 78.3604 36.7439 81.3559C36.7439 81.7275 36.7822 82.09 36.8533 82.4407H36.7439V91.1186H47.6033V82.4407H47.4939C47.565 82.09 47.6033 81.7275 47.6033 81.3559Z" fill="#D62F42"/>
<path d="M42.2329 73.7627C38.0417 73.7627 34.6313 77.1694 34.6313 81.3559V91.1186C34.6313 92.3178 35.6027 93.2881 36.8032 93.2881H47.6626C48.8631 93.2881 49.8345 92.3178 49.8345 91.1186V81.3559C49.8345 77.1694 46.4238 73.7627 42.2329 73.7627ZM42.2329 78.1017C44.0293 78.1017 45.4907 79.5615 45.4907 81.3559V82.4407H38.9751V81.3559C38.9751 79.5615 40.4362 78.1017 42.2329 78.1017ZM38.9751 88.9492V86.7797H45.4907V88.9492H38.9751Z" fill="#3F3B5C"/>
<path d="M69.4998 82.4407C61.1166 82.4407 54.2966 75.6282 54.2966 67.2542C54.2966 58.8803 61.1166 52.0678 69.4998 52.0678C77.8829 52.0678 84.7029 58.8803 84.7029 67.2542C84.7029 75.6282 77.8829 82.4407 69.4998 82.4407ZM69.4998 56.4068C63.5122 56.4068 58.6404 61.2727 58.6404 67.2542C58.6404 73.2358 63.5122 78.1017 69.4998 78.1017C75.4873 78.1017 80.3591 73.2358 80.3591 67.2542C80.3591 61.2727 75.4873 56.4068 69.4998 56.4068Z" fill="#3F3B5C"/>
<path d="M78.1873 88.9492H60.8123C57.2194 88.9492 54.2966 91.8687 54.2966 95.4576V125.831C54.2966 127.03 55.268 128 56.4685 128C57.669 128 58.6404 127.03 58.6404 125.831V101.966H67.2684V125.831H71.6122V101.966H80.3591V125.831C80.3591 127.03 81.3305 128 82.531 128C83.7315 128 84.7029 127.03 84.7029 125.831V95.4576C84.7029 91.8687 81.7801 88.9492 78.1873 88.9492ZM80.3591 97.6271H58.6404V95.4576C58.6404 94.2606 59.6139 93.2881 60.8123 93.2881H78.1873C79.3856 93.2881 80.3591 94.2606 80.3591 95.4576V97.6271Z" fill="#3F3B5C"/>
<path d="M136.828 128H2.17188C0.971371 128 0 127.03 0 125.831C0 124.631 0.971371 123.661 2.17188 123.661H136.828C138.029 123.661 139 124.631 139 125.831C139 127.03 138.029 128 136.828 128Z" fill="#5C546A"/>
</svg>
