<svg width="137" height="27" viewBox="0 0 137 27" fill="none" xmlns="http://www.w3.org/2000/svg">
<path d="M10.6875 26.457C14.502 26.457 17.5957 25.1035 18.8613 22.8535C19.1426 22.3965 19.2832 21.9219 19.2832 21.4473C19.2832 20.0762 18.2109 19.2676 16.9453 19.2676C16.1719 19.2676 15.6621 19.4785 15.0117 20.0938C13.623 21.5 12.4453 22.0449 10.7402 22.0449C8.49023 22.0449 6.96094 20.4629 6.96094 18.1426V17.791H17.3672C18.9844 17.791 19.8809 16.9121 19.8809 15.3301C19.8809 10.1621 16.1367 6.40039 10.4414 6.40039C4.60547 6.40039 0.914062 10.3203 0.914062 16.5254C0.914062 22.748 4.55273 26.457 10.6875 26.457ZM7.04883 14.2402C7.20703 12.2363 8.63086 10.8301 10.5645 10.8301C12.5156 10.8301 13.9043 12.166 14.0098 14.2402H7.04883ZM25.5059 26.4043C27.334 26.4043 28.6172 25.3672 28.6172 23.2051V22.7129H28.7402C29.707 24.9277 31.8164 26.2812 34.6113 26.2812C39.4102 26.2812 42.2051 22.6777 42.2051 16.4375C42.2051 10.1797 39.3926 6.57617 34.5586 6.57617C31.834 6.57617 29.7422 7.94727 28.7754 10.25H28.6523V3.46484C28.6523 1.28516 27.3516 0.230469 25.541 0.230469C23.7129 0.230469 22.4121 1.28516 22.4121 3.46484V23.2051C22.4121 25.3672 23.6953 26.4043 25.5059 26.4043ZM32.2383 21.4121C30.0586 21.4121 28.6348 19.4961 28.6172 16.4375C28.6348 13.4141 30.0586 11.4453 32.2383 11.4453C34.418 11.4453 35.8242 13.3965 35.8242 16.4375C35.8242 19.4785 34.4355 21.4121 32.2383 21.4121ZM51.5566 26.3691C54.4395 26.3691 56.2676 24.8926 57.1289 22.3789H57.252V23.2578C57.252 25.3848 58.4824 26.4043 60.2754 26.4043C62.0684 26.4043 63.2988 25.3848 63.2988 23.2402V9.6875C63.2988 7.50781 62.0156 6.45312 60.1875 6.45312C58.3594 6.45312 57.0762 7.50781 57.0762 9.6875V17.6855C57.0762 19.8477 55.8457 21.2891 53.9121 21.2891C51.9609 21.2891 50.7832 20.0762 50.7832 17.8086V9.6875C50.7832 7.50781 49.4824 6.45312 47.6719 6.45312C45.8438 6.45312 44.543 7.50781 44.543 9.6875V19.1621C44.543 23.6797 47.4434 26.3691 51.5566 26.3691ZM69.5566 26.4043C71.3672 26.4043 72.668 25.3496 72.668 23.1699V20.2871L74.25 18.8281L78.0117 24.2598C79.0488 25.8945 79.8223 26.4043 81.2461 26.4043C83.0215 26.4043 84.252 25.2617 84.252 23.5391C84.252 22.7305 84.041 22.1855 83.3379 21.2188L78.9434 15.4004L82.9863 11.6035C83.918 10.7422 84.2168 10.1445 84.2168 9.17773C84.2168 7.61328 83.0215 6.45312 81.4043 6.45312C80.4375 6.45312 79.7344 6.83984 78.8555 7.73633L72.7734 13.9941H72.668V3.46484C72.668 1.28516 71.3672 0.230469 69.5566 0.230469C67.7285 0.230469 66.4277 1.28516 66.4277 3.46484V23.1699C66.4277 25.3496 67.7285 26.4043 69.5566 26.4043ZM95.0098 26.457C101.039 26.457 104.801 22.8184 104.801 16.4199C104.801 10.1445 100.986 6.40039 95.0098 6.40039C89.0684 6.40039 85.2188 10.1621 85.2188 16.4199C85.2188 22.8008 88.9805 26.457 95.0098 26.457ZM95.0098 21.8867C92.8652 21.8867 91.5469 19.9355 91.5469 16.4375C91.5469 12.9922 92.9004 10.9707 95.0098 10.9707C97.1367 10.9707 98.4902 12.9922 98.4902 16.4375C98.4902 19.9355 97.1367 21.8867 95.0098 21.8867ZM110.32 26.4043C112.148 26.4043 113.449 25.3496 113.449 23.1699V14.6797C113.449 12.7988 114.539 11.5508 116.227 11.5508C117.932 11.5508 118.881 12.6055 118.881 14.5215V23.1699C118.881 25.3496 120.023 26.4043 121.852 26.4043C123.68 26.4043 124.84 25.3496 124.84 23.1699V14.6445C124.84 12.7637 125.895 11.5508 127.582 11.5508C129.34 11.5508 130.271 12.5879 130.271 14.5918V23.1699C130.271 25.3496 131.555 26.4043 133.383 26.4043C135.211 26.4043 136.512 25.3496 136.512 23.1699V13.0098C136.512 9.125 133.963 6.48828 130.219 6.48828C127.371 6.48828 125.051 8.10547 124.312 10.5664H124.189C123.645 7.96484 121.711 6.48828 118.863 6.48828C116.244 6.48828 114.152 8.08789 113.396 10.5488H113.273V9.61719C113.273 7.47266 112.025 6.45312 110.25 6.45312C108.457 6.45312 107.209 7.49023 107.209 9.61719V23.1699C107.209 25.3496 108.492 26.4043 110.32 26.4043Z" fill="white"/>
</svg>
