<svg width="24" height="24" viewBox="0 0 24 24" fill="none" xmlns="http://www.w3.org/2000/svg">
<path d="M18.2525 12.9879C18.0522 12.9879 17.8612 12.9023 17.7279 12.7527L12.7031 7.12006V3.51544H15.9C16.264 3.51544 16.489 3.11884 16.3022 2.80627L15.6758 1.758L16.3022 0.709717C16.489 0.397156 16.264 0.000549319 15.9 0.000549319H12.0084C12.0057 0.000366211 12.0029 0 12 0C11.6116 0 11.2969 0.314758 11.2969 0.703125V7.10852L6.21716 12.7549C6.08368 12.9033 5.8938 12.9879 5.6944 12.9879H0V23.296C0 23.6843 0.314758 23.9991 0.703125 23.9991H9.86407V19.4059C9.86407 19.0177 10.1788 18.7028 10.5672 18.7028H13.3797C13.7681 18.7028 14.0828 19.0177 14.0828 19.4059V23.9991H23.2969C23.6852 23.9991 24 23.6843 24 23.296V12.9879H18.2525ZM4.28558 20.3434C4.28558 20.7318 3.97083 21.0465 3.58246 21.0465C3.19427 21.0465 2.87933 20.7318 2.87933 20.3434V19.4059C2.87933 19.0177 3.19427 18.7028 3.58246 18.7028C3.97083 18.7028 4.28558 19.0177 4.28558 19.4059V20.3434ZM4.28558 16.5936C4.28558 16.9819 3.97083 17.2967 3.58246 17.2967C3.19427 17.2967 2.87933 16.9819 2.87933 16.5936V15.6561C2.87933 15.2679 3.19427 14.9529 3.58246 14.9529C3.97083 14.9529 4.28558 15.2679 4.28558 15.6561V16.5936ZM7.09808 20.3434C7.09808 20.7318 6.78333 21.0465 6.39496 21.0465C6.00677 21.0465 5.69183 20.7318 5.69183 20.3434V19.4059C5.69183 19.0177 6.00677 18.7028 6.39496 18.7028C6.78333 18.7028 7.09808 19.0177 7.09808 19.4059V20.3434ZM7.09808 16.5936C7.09808 16.9819 6.78333 17.2967 6.39496 17.2967C6.00677 17.2967 5.69183 16.9819 5.69183 16.5936V15.6561C5.69183 15.2679 6.00677 14.9529 6.39496 14.9529C6.78333 14.9529 7.09808 15.2679 7.09808 15.6561V16.5936ZM11.2617 16.5936C11.2617 16.9819 10.947 17.2967 10.5586 17.2967C10.1702 17.2967 9.85547 16.9819 9.85547 16.5936V15.6561C9.85547 15.2679 10.1702 14.9529 10.5586 14.9529C10.947 14.9529 11.2617 15.2679 11.2617 15.6561V16.5936ZM9.89062 11.2471C9.89062 10.084 10.8369 9.13788 12 9.13788C13.1631 9.13788 14.1094 10.084 14.1094 11.2471C14.1094 12.4103 13.1631 13.3564 12 13.3564C10.8369 13.3564 9.89062 12.4103 9.89062 11.2471ZM14.1445 16.5936C14.1445 16.9819 13.8298 17.2967 13.4414 17.2967C13.053 17.2967 12.7383 16.9819 12.7383 16.5936V15.6561C12.7383 15.2679 13.053 14.9529 13.4414 14.9529C13.8298 14.9529 14.1445 15.2679 14.1445 15.6561V16.5936ZM18.1324 20.3434C18.1324 20.7318 17.8174 21.0465 17.4293 21.0465C17.0409 21.0465 16.7261 20.7318 16.7261 20.3434V19.4059C16.7261 19.0177 17.0409 18.7028 17.4293 18.7028C17.8174 18.7028 18.1324 19.0177 18.1324 19.4059V20.3434ZM18.1324 16.5936C18.1324 16.9819 17.8174 17.2967 17.4293 17.2967C17.0409 17.2967 16.7261 16.9819 16.7261 16.5936V15.6561C16.7261 15.2679 17.0409 14.9529 17.4293 14.9529C17.8174 14.9529 18.1324 15.2679 18.1324 15.6561V16.5936ZM20.9449 20.3434C20.9449 20.7318 20.6299 21.0465 20.2418 21.0465C19.8534 21.0465 19.5386 20.7318 19.5386 20.3434V19.4059C19.5386 19.0177 19.8534 18.7028 20.2418 18.7028C20.6299 18.7028 20.9449 19.0177 20.9449 19.4059V20.3434ZM20.9449 16.5936C20.9449 16.9819 20.6299 17.2967 20.2418 17.2967C19.8534 17.2967 19.5386 16.9819 19.5386 16.5936V15.6561C19.5386 15.2679 19.8534 14.9529 20.2418 14.9529C20.6299 14.9529 20.9449 15.2679 20.9449 15.6561V16.5936Z" fill="#3F3B5C"/>
</svg>
